# Exported from Wings 3D 1.4.1
newmtl Material.001
Ns 100.0
d 1.0
illum 2
Kd 0.3254901960784314 0.8 0.6549019607843137
Ka 0.3254901960784314 0.8 0.6549019607843137
Ks 1.0 1.0 1.0
Ke 0.0 0.0 0.0

newmtl default
Ns 100.0
d 1.0
illum 2
Kd 0.7898538076923077 0.8133333333333334 0.6940444444444445
Ka 0.7898538076923077 0.8133333333333334 0.6940444444444445
Ks 1.0 1.0 1.0
Ke 0.0 0.0 0.0

newmtl default2
Ns 100.0
d 1.0
illum 2
Kd 0.788235294117647 0.8117647058823529 0.6901960784313725
Ka 0.788235294117647 0.8117647058823529 0.6901960784313725
Ks 1.0 1.0 1.0
Ke 0.0 0.0 0.0

newmtl default3
Ns 100.0
d 1.0
illum 2
Kd 0.788235294117647 0.8117647058823529 0.6901960784313725
Ka 0.788235294117647 0.8117647058823529 0.6901960784313725
Ks 1.0 1.0 1.0
Ke 0.0 0.0 0.0

